{
    "openapi": "3.0.0",
    "info": {
        "version": "1.0.0",
        "title": "It this sudeste api docs.",
        "license": {
            "name": "Proprietary"
        }
    },
    "servers": [
        {
            "url": "\/api"
        }
    ],
    "paths": {
        "\/cultures": {
            "post": {
                "summary": "",
                "description": "",
                "tags": [
                    "Cultures"
                ],
                "operationId": "cultures:add",
                "parameters": [],
                "requestBody": {
                    "description": "",
                    "content": {
                        "application\/x-www-form-urlencoded": {
                            "schema": {
                                "description": "Culture Entity",
                                "type": "object",
                                "required": [
                                    "name"
                                ],
                                "properties": {
                                    "name": {
                                        "type": "string",
                                        "format": "",
                                        "minLength": 1,
                                        "maxLength": 60
                                    }
                                }
                            }
                        }
                    },
                    "required": false
                },
                "responses": {
                    "200": {
                        "description": "",
                        "content": {
                            "application\/json": {
                                "schema": {
                                    "description": "Culture Entity",
                                    "type": "object",
                                    "properties": {
                                        "id": {
                                            "type": "integer",
                                            "format": "",
                                            "readOnly": true
                                        },
                                        "name": {
                                            "type": "string",
                                            "format": "",
                                            "minLength": 1,
                                            "maxLength": 60
                                        }
                                    }
                                }
                            }
                        }
                    }
                },
                "security": [
                    {
                        "jwt_token": []
                    }
                ],
                "deprecated": false
            },
            "get": {
                "summary": "",
                "description": "",
                "tags": [
                    "Cultures"
                ],
                "operationId": "cultures:index",
                "parameters": [
                    {
                        "name": "name",
                        "in": "query",
                        "description": "find products by name.",
                        "required": false,
                        "schema": {
                            "description": "",
                            "type": "string"
                        },
                        "deprecated": false,
                        "allowEmptyValue": false,
                        "explode": false,
                        "allowReserved": false
                    },
                    {
                        "name": "noPage",
                        "in": "query",
                        "description": "paginate data.",
                        "required": false,
                        "schema": {
                            "description": "",
                            "type": "boolean"
                        },
                        "deprecated": false,
                        "allowEmptyValue": false,
                        "explode": false,
                        "allowReserved": false
                    }
                ],
                "responses": {
                    "200": {
                        "description": "",
                        "content": {
                            "application\/json": {
                                "schema": {
                                    "$ref": "#\/components\/schemas\/Pagination"
                                }
                            }
                        }
                    },
                    "500": {
                        "description": "ErrorException",
                        "content": {
                            "application\/json": {
                                "schema": {
                                    "$ref": "#\/components\/schemas\/Exception"
                                }
                            }
                        }
                    }
                },
                "security": [
                    {
                        "jwt_token": []
                    }
                ],
                "deprecated": false
            }
        },
        "\/cultures\/{id}": {
            "delete": {
                "summary": "",
                "description": "",
                "tags": [
                    "Cultures"
                ],
                "operationId": "cultures:delete",
                "parameters": [
                    {
                        "name": "id",
                        "in": "path",
                        "required": true,
                        "schema": {
                            "description": "",
                            "type": "string"
                        },
                        "deprecated": false,
                        "allowEmptyValue": false,
                        "explode": false
                    }
                ],
                "responses": {
                    "204": {
                        "description": "Resource deleted"
                    }
                },
                "security": [
                    {
                        "jwt_token": []
                    }
                ],
                "deprecated": false
            },
            "patch": {
                "summary": "",
                "description": "",
                "tags": [
                    "Cultures"
                ],
                "operationId": "cultures:edit",
                "parameters": [
                    {
                        "name": "id",
                        "in": "path",
                        "required": true,
                        "schema": {
                            "description": "",
                            "type": "string"
                        },
                        "deprecated": false,
                        "allowEmptyValue": false,
                        "explode": false
                    }
                ],
                "requestBody": {
                    "description": "",
                    "content": {
                        "application\/x-www-form-urlencoded": {
                            "schema": {
                                "description": "Culture Entity",
                                "type": "object",
                                "required": [
                                    "name"
                                ],
                                "properties": {
                                    "name": {
                                        "type": "string",
                                        "format": "",
                                        "minLength": 1,
                                        "maxLength": 60
                                    }
                                }
                            }
                        }
                    },
                    "required": false
                },
                "responses": {
                    "200": {
                        "description": "",
                        "content": {
                            "application\/json": {
                                "schema": {
                                    "description": "Culture Entity",
                                    "type": "object",
                                    "properties": {
                                        "id": {
                                            "type": "integer",
                                            "format": "",
                                            "readOnly": true
                                        },
                                        "name": {
                                            "type": "string",
                                            "format": "",
                                            "minLength": 1,
                                            "maxLength": 60
                                        }
                                    }
                                }
                            }
                        }
                    }
                },
                "security": [
                    {
                        "jwt_token": []
                    }
                ],
                "deprecated": false
            },
            "get": {
                "summary": "",
                "description": "",
                "tags": [
                    "Cultures"
                ],
                "operationId": "cultures:view",
                "parameters": [
                    {
                        "name": "id",
                        "in": "path",
                        "required": true,
                        "schema": {
                            "description": "",
                            "type": "string"
                        },
                        "deprecated": false,
                        "allowEmptyValue": false,
                        "explode": false
                    }
                ],
                "responses": {
                    "200": {
                        "description": "",
                        "content": {
                            "application\/json": {
                                "schema": {
                                    "description": "Culture Entity",
                                    "type": "object",
                                    "properties": {
                                        "id": {
                                            "type": "integer",
                                            "format": "",
                                            "readOnly": true
                                        },
                                        "name": {
                                            "type": "string",
                                            "format": "",
                                            "minLength": 1,
                                            "maxLength": 60
                                        }
                                    }
                                }
                            }
                        }
                    }
                },
                "security": [
                    {
                        "jwt_token": []
                    }
                ],
                "deprecated": false
            }
        },
        "\/dosages": {
            "post": {
                "summary": "",
                "description": "",
                "tags": [
                    "Dosages"
                ],
                "operationId": "dosages:add",
                "parameters": [],
                "requestBody": {
                    "description": "",
                    "content": {
                        "application\/x-www-form-urlencoded": {
                            "schema": {
                                "description": "Dosage Entity",
                                "type": "object",
                                "required": [
                                    "value",
                                    "product_id",
                                    "culture_id",
                                    "pest_id"
                                ],
                                "properties": {
                                    "value": {
                                        "type": "integer",
                                        "format": "",
                                        "minLength": 1
                                    },
                                    "unit_type": {
                                        "type": "string",
                                        "format": "",
                                        "maxLength": 6
                                    },
                                    "product_id": {
                                        "type": "integer",
                                        "format": "",
                                        "minLength": 1
                                    },
                                    "culture_id": {
                                        "type": "integer",
                                        "format": "",
                                        "minLength": 1
                                    },
                                    "pest_id": {
                                        "type": "integer",
                                        "format": "",
                                        "minLength": 1
                                    }
                                }
                            }
                        }
                    },
                    "required": false
                },
                "responses": {
                    "200": {
                        "description": "",
                        "content": {
                            "application\/json": {
                                "schema": {
                                    "description": "Dosage Entity",
                                    "type": "object",
                                    "properties": {
                                        "id": {
                                            "type": "integer",
                                            "format": "",
                                            "readOnly": true
                                        },
                                        "value": {
                                            "type": "integer",
                                            "format": "",
                                            "minLength": 1
                                        },
                                        "unit_type": {
                                            "type": "string",
                                            "format": "",
                                            "maxLength": 6
                                        },
                                        "product_id": {
                                            "type": "integer",
                                            "format": "",
                                            "minLength": 1
                                        },
                                        "culture_id": {
                                            "type": "integer",
                                            "format": "",
                                            "minLength": 1
                                        },
                                        "pest_id": {
                                            "type": "integer",
                                            "format": "",
                                            "minLength": 1
                                        }
                                    }
                                }
                            }
                        }
                    }
                },
                "security": [
                    {
                        "jwt_token": []
                    }
                ],
                "deprecated": false
            },
            "get": {
                "summary": "",
                "description": "",
                "tags": [
                    "Dosages"
                ],
                "operationId": "dosages:index",
                "parameters": [
                    {
                        "name": "unit_type",
                        "in": "query",
                        "description": "find by types of dosage",
                        "required": false,
                        "schema": {
                            "description": "",
                            "type": "string"
                        },
                        "deprecated": false,
                        "allowEmptyValue": false,
                        "explode": false,
                        "allowReserved": false
                    },
                    {
                        "name": "product_id",
                        "in": "query",
                        "description": "find by product",
                        "required": false,
                        "schema": {
                            "description": "",
                            "type": "integer"
                        },
                        "deprecated": false,
                        "allowEmptyValue": false,
                        "explode": false,
                        "allowReserved": false
                    },
                    {
                        "name": "culture_id",
                        "in": "query",
                        "description": "find by culture",
                        "required": false,
                        "schema": {
                            "description": "",
                            "type": "integer"
                        },
                        "deprecated": false,
                        "allowEmptyValue": false,
                        "explode": false,
                        "allowReserved": false
                    },
                    {
                        "name": "pest_id",
                        "in": "query",
                        "description": "find by pest",
                        "required": false,
                        "schema": {
                            "description": "",
                            "type": "integer"
                        },
                        "deprecated": false,
                        "allowEmptyValue": false,
                        "explode": false,
                        "allowReserved": false
                    },
                    {
                        "name": "noPage",
                        "in": "query",
                        "description": "paginate data.",
                        "required": false,
                        "schema": {
                            "description": "",
                            "type": "boolean"
                        },
                        "deprecated": false,
                        "allowEmptyValue": false,
                        "explode": false,
                        "allowReserved": false
                    },
                    {
                        "name": "nested",
                        "in": "query",
                        "description": "get related items: products, pests, cultures",
                        "required": false,
                        "schema": {
                            "description": "",
                            "type": "string"
                        },
                        "deprecated": false,
                        "allowEmptyValue": false,
                        "explode": false,
                        "allowReserved": false,
                        "example": "cultures,products,pests"
                    }
                ],
                "responses": {
                    "200": {
                        "description": "",
                        "content": {
                            "application\/json": {
                                "schema": {
                                    "$ref": "#\/components\/schemas\/Pagination"
                                }
                            }
                        }
                    },
                    "500": {
                        "description": "ErrorException",
                        "content": {
                            "application\/json": {
                                "schema": {
                                    "$ref": "#\/components\/schemas\/Exception"
                                }
                            }
                        }
                    }
                },
                "security": [
                    {
                        "jwt_token": []
                    }
                ],
                "deprecated": false
            }
        },
        "\/dosages\/pdf": {
            "get": {
                "summary": "",
                "description": "",
                "tags": [
                    "Dosages"
                ],
                "operationId": "dosages:printpdf",
                "parameters": [],
                "responses": {
                    "200": {
                        "description": "",
                        "content": {
                            "application\/pdf": {
                                "type": "",
                                "format": "",
                                "schema": {
                                    "$ref": ""
                                }
                            }
                        }
                    }
                },
                "security": [
                    {
                        "jwt_token": []
                    }
                ],
                "deprecated": false
            }
        },
        "\/dosages\/{id}": {
            "delete": {
                "summary": "",
                "description": "",
                "tags": [
                    "Dosages"
                ],
                "operationId": "dosages:delete",
                "parameters": [
                    {
                        "name": "id",
                        "in": "path",
                        "required": true,
                        "schema": {
                            "description": "",
                            "type": "string"
                        },
                        "deprecated": false,
                        "allowEmptyValue": false,
                        "explode": false
                    }
                ],
                "responses": {
                    "204": {
                        "description": "Resource deleted"
                    }
                },
                "security": [
                    {
                        "jwt_token": []
                    }
                ],
                "deprecated": false
            },
            "patch": {
                "summary": "",
                "description": "",
                "tags": [
                    "Dosages"
                ],
                "operationId": "dosages:edit",
                "parameters": [
                    {
                        "name": "id",
                        "in": "path",
                        "required": true,
                        "schema": {
                            "description": "",
                            "type": "string"
                        },
                        "deprecated": false,
                        "allowEmptyValue": false,
                        "explode": false
                    }
                ],
                "requestBody": {
                    "description": "",
                    "content": {
                        "application\/x-www-form-urlencoded": {
                            "schema": {
                                "description": "Dosage Entity",
                                "type": "object",
                                "required": [
                                    "value",
                                    "product_id",
                                    "culture_id",
                                    "pest_id"
                                ],
                                "properties": {
                                    "value": {
                                        "type": "integer",
                                        "format": "",
                                        "minLength": 1
                                    },
                                    "unit_type": {
                                        "type": "string",
                                        "format": "",
                                        "maxLength": 6
                                    },
                                    "product_id": {
                                        "type": "integer",
                                        "format": "",
                                        "minLength": 1
                                    },
                                    "culture_id": {
                                        "type": "integer",
                                        "format": "",
                                        "minLength": 1
                                    },
                                    "pest_id": {
                                        "type": "integer",
                                        "format": "",
                                        "minLength": 1
                                    }
                                }
                            }
                        }
                    },
                    "required": false
                },
                "responses": {
                    "200": {
                        "description": "",
                        "content": {
                            "application\/json": {
                                "schema": {
                                    "description": "Dosage Entity",
                                    "type": "object",
                                    "properties": {
                                        "id": {
                                            "type": "integer",
                                            "format": "",
                                            "readOnly": true
                                        },
                                        "value": {
                                            "type": "integer",
                                            "format": "",
                                            "minLength": 1
                                        },
                                        "unit_type": {
                                            "type": "string",
                                            "format": "",
                                            "maxLength": 6
                                        },
                                        "product_id": {
                                            "type": "integer",
                                            "format": "",
                                            "minLength": 1
                                        },
                                        "culture_id": {
                                            "type": "integer",
                                            "format": "",
                                            "minLength": 1
                                        },
                                        "pest_id": {
                                            "type": "integer",
                                            "format": "",
                                            "minLength": 1
                                        }
                                    }
                                }
                            }
                        }
                    }
                },
                "security": [
                    {
                        "jwt_token": []
                    }
                ],
                "deprecated": false
            },
            "get": {
                "summary": "",
                "description": "",
                "tags": [
                    "Dosages"
                ],
                "operationId": "dosages:view",
                "parameters": [
                    {
                        "name": "id",
                        "in": "path",
                        "required": true,
                        "schema": {
                            "description": "",
                            "type": "string"
                        },
                        "deprecated": false,
                        "allowEmptyValue": false,
                        "explode": false
                    }
                ],
                "responses": {
                    "200": {
                        "description": "",
                        "content": {
                            "application\/json": {
                                "schema": {
                                    "description": "Dosage Entity",
                                    "type": "object",
                                    "properties": {
                                        "id": {
                                            "type": "integer",
                                            "format": "",
                                            "readOnly": true
                                        },
                                        "value": {
                                            "type": "integer",
                                            "format": "",
                                            "minLength": 1
                                        },
                                        "unit_type": {
                                            "type": "string",
                                            "format": "",
                                            "maxLength": 6
                                        },
                                        "product_id": {
                                            "type": "integer",
                                            "format": "",
                                            "minLength": 1
                                        },
                                        "culture_id": {
                                            "type": "integer",
                                            "format": "",
                                            "minLength": 1
                                        },
                                        "pest_id": {
                                            "type": "integer",
                                            "format": "",
                                            "minLength": 1
                                        }
                                    }
                                }
                            }
                        }
                    }
                },
                "security": [
                    {
                        "jwt_token": []
                    }
                ],
                "deprecated": false
            }
        },
        "\/pests": {
            "post": {
                "summary": "",
                "description": "",
                "tags": [
                    "Pests"
                ],
                "operationId": "pests:add",
                "parameters": [],
                "requestBody": {
                    "description": "",
                    "content": {
                        "application\/x-www-form-urlencoded": {
                            "schema": {
                                "description": "Pest Entity",
                                "type": "object",
                                "required": [
                                    "name"
                                ],
                                "properties": {
                                    "name": {
                                        "type": "string",
                                        "format": "",
                                        "minLength": 1,
                                        "maxLength": 60
                                    }
                                }
                            }
                        }
                    },
                    "required": false
                },
                "responses": {
                    "200": {
                        "description": "",
                        "content": {
                            "application\/json": {
                                "schema": {
                                    "description": "Pest Entity",
                                    "type": "object",
                                    "properties": {
                                        "id": {
                                            "type": "integer",
                                            "format": "",
                                            "readOnly": true
                                        },
                                        "name": {
                                            "type": "string",
                                            "format": "",
                                            "minLength": 1,
                                            "maxLength": 60
                                        }
                                    }
                                }
                            }
                        }
                    }
                },
                "security": [
                    {
                        "jwt_token": []
                    }
                ],
                "deprecated": false
            },
            "get": {
                "summary": "",
                "description": "",
                "tags": [
                    "Pests"
                ],
                "operationId": "pests:index",
                "parameters": [
                    {
                        "name": "name",
                        "in": "query",
                        "description": "find products by name.",
                        "required": false,
                        "schema": {
                            "description": "",
                            "type": "string"
                        },
                        "deprecated": false,
                        "allowEmptyValue": false,
                        "explode": false,
                        "allowReserved": false
                    },
                    {
                        "name": "nested",
                        "in": "query",
                        "description": "get related items: dosages",
                        "required": false,
                        "schema": {
                            "description": "",
                            "type": "string"
                        },
                        "deprecated": false,
                        "allowEmptyValue": false,
                        "explode": false,
                        "allowReserved": false,
                        "example": "dosages"
                    },
                    {
                        "name": "noPage",
                        "in": "query",
                        "description": "paginate data.",
                        "required": false,
                        "schema": {
                            "description": "",
                            "type": "boolean"
                        },
                        "deprecated": false,
                        "allowEmptyValue": false,
                        "explode": false,
                        "allowReserved": false
                    }
                ],
                "responses": {
                    "200": {
                        "description": "",
                        "content": {
                            "application\/json": {
                                "schema": {
                                    "$ref": "#\/components\/schemas\/Pagination"
                                }
                            }
                        }
                    },
                    "500": {
                        "description": "ErrorException",
                        "content": {
                            "application\/json": {
                                "schema": {
                                    "$ref": "#\/components\/schemas\/Exception"
                                }
                            }
                        }
                    }
                },
                "security": [
                    {
                        "jwt_token": []
                    }
                ],
                "deprecated": false
            }
        },
        "\/pests\/{id}": {
            "delete": {
                "summary": "",
                "description": "",
                "tags": [
                    "Pests"
                ],
                "operationId": "pests:delete",
                "parameters": [
                    {
                        "name": "id",
                        "in": "path",
                        "required": true,
                        "schema": {
                            "description": "",
                            "type": "string"
                        },
                        "deprecated": false,
                        "allowEmptyValue": false,
                        "explode": false
                    }
                ],
                "responses": {
                    "204": {
                        "description": "Resource deleted"
                    }
                },
                "security": [
                    {
                        "jwt_token": []
                    }
                ],
                "deprecated": false
            },
            "patch": {
                "summary": "",
                "description": "",
                "tags": [
                    "Pests"
                ],
                "operationId": "pests:edit",
                "parameters": [
                    {
                        "name": "id",
                        "in": "path",
                        "required": true,
                        "schema": {
                            "description": "",
                            "type": "string"
                        },
                        "deprecated": false,
                        "allowEmptyValue": false,
                        "explode": false
                    }
                ],
                "requestBody": {
                    "description": "",
                    "content": {
                        "application\/x-www-form-urlencoded": {
                            "schema": {
                                "description": "Pest Entity",
                                "type": "object",
                                "required": [
                                    "name"
                                ],
                                "properties": {
                                    "name": {
                                        "type": "string",
                                        "format": "",
                                        "minLength": 1,
                                        "maxLength": 60
                                    }
                                }
                            }
                        }
                    },
                    "required": false
                },
                "responses": {
                    "200": {
                        "description": "",
                        "content": {
                            "application\/json": {
                                "schema": {
                                    "description": "Pest Entity",
                                    "type": "object",
                                    "properties": {
                                        "id": {
                                            "type": "integer",
                                            "format": "",
                                            "readOnly": true
                                        },
                                        "name": {
                                            "type": "string",
                                            "format": "",
                                            "minLength": 1,
                                            "maxLength": 60
                                        }
                                    }
                                }
                            }
                        }
                    }
                },
                "security": [
                    {
                        "jwt_token": []
                    }
                ],
                "deprecated": false
            },
            "get": {
                "summary": "",
                "description": "",
                "tags": [
                    "Pests"
                ],
                "operationId": "pests:view",
                "parameters": [
                    {
                        "name": "id",
                        "in": "path",
                        "required": true,
                        "schema": {
                            "description": "",
                            "type": "string"
                        },
                        "deprecated": false,
                        "allowEmptyValue": false,
                        "explode": false
                    }
                ],
                "responses": {
                    "200": {
                        "description": "",
                        "content": {
                            "application\/json": {
                                "schema": {
                                    "description": "Pest Entity",
                                    "type": "object",
                                    "properties": {
                                        "id": {
                                            "type": "integer",
                                            "format": "",
                                            "readOnly": true
                                        },
                                        "name": {
                                            "type": "string",
                                            "format": "",
                                            "minLength": 1,
                                            "maxLength": 60
                                        }
                                    }
                                }
                            }
                        }
                    }
                },
                "security": [
                    {
                        "jwt_token": []
                    }
                ],
                "deprecated": false
            }
        },
        "\/products": {
            "post": {
                "summary": "",
                "description": "",
                "tags": [
                    "Products"
                ],
                "operationId": "products:add",
                "parameters": [],
                "requestBody": {
                    "description": "",
                    "content": {
                        "application\/x-www-form-urlencoded": {
                            "schema": {
                                "description": "Product Entity",
                                "type": "object",
                                "required": [
                                    "name",
                                    "vendor_name"
                                ],
                                "properties": {
                                    "name": {
                                        "type": "string",
                                        "format": "",
                                        "minLength": 1,
                                        "maxLength": 60
                                    },
                                    "vendor_name": {
                                        "type": "string",
                                        "format": "",
                                        "minLength": 1,
                                        "maxLength": 60
                                    },
                                    "type": {
                                        "type": "string",
                                        "format": "",
                                        "maxLength": 20
                                    }
                                }
                            }
                        }
                    },
                    "required": false
                },
                "responses": {
                    "200": {
                        "description": "",
                        "content": {
                            "application\/json": {
                                "schema": {
                                    "description": "Product Entity",
                                    "type": "object",
                                    "properties": {
                                        "id": {
                                            "type": "integer",
                                            "format": "",
                                            "readOnly": true
                                        },
                                        "name": {
                                            "type": "string",
                                            "format": "",
                                            "minLength": 1,
                                            "maxLength": 60
                                        },
                                        "vendor_name": {
                                            "type": "string",
                                            "format": "",
                                            "minLength": 1,
                                            "maxLength": 60
                                        },
                                        "type": {
                                            "type": "string",
                                            "format": "",
                                            "maxLength": 20
                                        }
                                    }
                                }
                            }
                        }
                    }
                },
                "security": [
                    {
                        "jwt_token": []
                    }
                ],
                "deprecated": false
            },
            "get": {
                "summary": "",
                "description": "",
                "tags": [
                    "Products"
                ],
                "operationId": "products:index",
                "parameters": [
                    {
                        "name": "name",
                        "in": "query",
                        "description": "find products by name.",
                        "required": false,
                        "schema": {
                            "description": "",
                            "type": "string"
                        },
                        "deprecated": false,
                        "allowEmptyValue": false,
                        "explode": false,
                        "allowReserved": false
                    },
                    {
                        "name": "noPage",
                        "in": "query",
                        "description": "paginate data.",
                        "required": false,
                        "schema": {
                            "description": "",
                            "type": "boolean"
                        },
                        "deprecated": false,
                        "allowEmptyValue": false,
                        "explode": false,
                        "allowReserved": false
                    }
                ],
                "responses": {
                    "200": {
                        "description": "",
                        "content": {
                            "application\/json": {
                                "schema": {
                                    "$ref": "#\/components\/schemas\/Pagination"
                                }
                            }
                        }
                    },
                    "500": {
                        "description": "ErrorException",
                        "content": {
                            "application\/json": {
                                "schema": {
                                    "$ref": "#\/components\/schemas\/Exception"
                                }
                            }
                        }
                    }
                },
                "security": [
                    {
                        "jwt_token": []
                    }
                ],
                "deprecated": false
            }
        },
        "\/products\/{id}": {
            "delete": {
                "summary": "",
                "description": "",
                "tags": [
                    "Products"
                ],
                "operationId": "products:delete",
                "parameters": [
                    {
                        "name": "id",
                        "in": "path",
                        "required": true,
                        "schema": {
                            "description": "",
                            "type": "string"
                        },
                        "deprecated": false,
                        "allowEmptyValue": false,
                        "explode": false
                    }
                ],
                "responses": {
                    "204": {
                        "description": "Resource deleted"
                    }
                },
                "security": [
                    {
                        "jwt_token": []
                    }
                ],
                "deprecated": false
            },
            "patch": {
                "summary": "",
                "description": "",
                "tags": [
                    "Products"
                ],
                "operationId": "products:edit",
                "parameters": [
                    {
                        "name": "id",
                        "in": "path",
                        "required": true,
                        "schema": {
                            "description": "",
                            "type": "string"
                        },
                        "deprecated": false,
                        "allowEmptyValue": false,
                        "explode": false
                    }
                ],
                "requestBody": {
                    "description": "",
                    "content": {
                        "application\/x-www-form-urlencoded": {
                            "schema": {
                                "description": "Product Entity",
                                "type": "object",
                                "required": [
                                    "name",
                                    "vendor_name"
                                ],
                                "properties": {
                                    "name": {
                                        "type": "string",
                                        "format": "",
                                        "minLength": 1,
                                        "maxLength": 60
                                    },
                                    "vendor_name": {
                                        "type": "string",
                                        "format": "",
                                        "minLength": 1,
                                        "maxLength": 60
                                    },
                                    "type": {
                                        "type": "string",
                                        "format": "",
                                        "maxLength": 20
                                    }
                                }
                            }
                        }
                    },
                    "required": false
                },
                "responses": {
                    "200": {
                        "description": "",
                        "content": {
                            "application\/json": {
                                "schema": {
                                    "description": "Product Entity",
                                    "type": "object",
                                    "properties": {
                                        "id": {
                                            "type": "integer",
                                            "format": "",
                                            "readOnly": true
                                        },
                                        "name": {
                                            "type": "string",
                                            "format": "",
                                            "minLength": 1,
                                            "maxLength": 60
                                        },
                                        "vendor_name": {
                                            "type": "string",
                                            "format": "",
                                            "minLength": 1,
                                            "maxLength": 60
                                        },
                                        "type": {
                                            "type": "string",
                                            "format": "",
                                            "maxLength": 20
                                        }
                                    }
                                }
                            }
                        }
                    }
                },
                "security": [
                    {
                        "jwt_token": []
                    }
                ],
                "deprecated": false
            },
            "get": {
                "summary": "",
                "description": "",
                "tags": [
                    "Products"
                ],
                "operationId": "products:view",
                "parameters": [
                    {
                        "name": "id",
                        "in": "path",
                        "required": true,
                        "schema": {
                            "description": "",
                            "type": "string"
                        },
                        "deprecated": false,
                        "allowEmptyValue": false,
                        "explode": false
                    }
                ],
                "responses": {
                    "200": {
                        "description": "",
                        "content": {
                            "application\/json": {
                                "schema": {
                                    "description": "Product Entity",
                                    "type": "object",
                                    "properties": {
                                        "id": {
                                            "type": "integer",
                                            "format": "",
                                            "readOnly": true
                                        },
                                        "name": {
                                            "type": "string",
                                            "format": "",
                                            "minLength": 1,
                                            "maxLength": 60
                                        },
                                        "vendor_name": {
                                            "type": "string",
                                            "format": "",
                                            "minLength": 1,
                                            "maxLength": 60
                                        },
                                        "type": {
                                            "type": "string",
                                            "format": "",
                                            "maxLength": 20
                                        }
                                    }
                                }
                            }
                        }
                    }
                },
                "security": [
                    {
                        "jwt_token": []
                    }
                ],
                "deprecated": false
            }
        },
        "\/token": {
            "post": {
                "summary": "Get token by username (email) and password.",
                "servers": [
                    {
                        "url": "\/"
                    }
                ],
                "operationId": null,
                "requestBody": {
                    "$ref": "#\/components\/requestBodies\/UserLogin"
                },
                "responses": {
                    "200": {
                        "description": "Authentication Successfully.",
                        "content": {
                            "application\/json": {
                                "schema": {
                                    "$ref": "#\/components\/schemas\/UserAuthenticated"
                                }
                            }
                        }
                    },
                    "401": {
                        "description": "Unauthenticated User.",
                        "content": {
                            "text\/html": {
                                "schema": {
                                    "example": "Authentication failed."
                                }
                            }
                        }
                    }
                }
            }
        }
    },
    "definitions": null,
    "components": {
        "securitySchemes": {
            "jwt_token": {
                "type": "http",
                "scheme": "bearer",
                "bearerFormat": "JWT"
            }
        },
        "reponses": {
            "NotFound": {
                "description": "Entity not found."
            },
            "Unauthenticated": {
                "description": "Credentials is wrong.",
                "content": {
                    "text\/html": {
                        "type": "string"
                    }
                }
            },
            "Authenticated": {
                "description": "Successfully authenticated operation",
                "content": {
                    "text\/html": {
                        "schema": {
                            "type": "string"
                        }
                    }
                }
            }
        },
        "requestBodies": {
            "UserLogin": {
                "content": {
                    "application\/json": {
                        "schema": {
                            "$ref": "#\/components\/schemas\/UserLogin"
                        }
                    }
                }
            }
        },
        "schemas": {
            "Culture": {
                "description": "Culture Entity",
                "type": "object",
                "properties": {
                    "id": {
                        "type": "integer",
                        "format": "",
                        "readOnly": true
                    },
                    "name": {
                        "type": "string",
                        "format": "",
                        "minLength": 1,
                        "maxLength": 60
                    }
                }
            },
            "Cultures": {
                "description": "",
                "type": "array",
                "items": {
                    "$ref": "#\/components\/schemas\/Culture"
                }
            },
            "Dosage": {
                "description": "Dosage Entity",
                "type": "object",
                "properties": {
                    "id": {
                        "type": "integer",
                        "format": "",
                        "readOnly": true
                    },
                    "value": {
                        "type": "integer",
                        "format": "",
                        "minLength": 1
                    },
                    "unit_type": {
                        "type": "string",
                        "format": "",
                        "maxLength": 6
                    },
                    "product_id": {
                        "type": "integer",
                        "format": "",
                        "minLength": 1
                    },
                    "culture_id": {
                        "type": "integer",
                        "format": "",
                        "minLength": 1
                    },
                    "pest_id": {
                        "type": "integer",
                        "format": "",
                        "minLength": 1
                    }
                }
            },
            "Dosages": {
                "description": "",
                "type": "array",
                "items": {
                    "$ref": "#\/components\/schemas\/Dosage"
                }
            },
            "Exception": {
                "description": "Error in server.",
                "type": "object",
                "properties": {
                    "message": {
                        "type": "string",
                        "format": ""
                    },
                    "code": {
                        "type": "integer",
                        "format": ""
                    }
                }
            },
            "Pagination": {
                "description": "",
                "type": "object",
                "properties": {
                    "data": {
                        "type": "",
                        "format": ""
                    },
                    "meta": {
                        "type": "",
                        "format": ""
                    }
                }
            },
            "PaginationData": {
                "description": "",
                "type": "array"
            },
            "PaginationMeta": {
                "description": "",
                "type": "object",
                "properties": {
                    "per_page": {
                        "type": "integer",
                        "format": ""
                    },
                    "current_page": {
                        "type": "integer",
                        "format": ""
                    },
                    "last_page": {
                        "type": "integer",
                        "format": ""
                    },
                    "first_page_url": {
                        "type": "string",
                        "format": ""
                    },
                    "next_page_url": {
                        "type": "string",
                        "format": ""
                    },
                    "last_page_url": {
                        "type": "string",
                        "format": ""
                    },
                    "prev_page_url": {
                        "type": "string",
                        "format": ""
                    },
                    "path": {
                        "type": "string",
                        "format": "",
                        "description": "Current resource fetching."
                    },
                    "from": {
                        "type": "string",
                        "format": ""
                    },
                    "to": {
                        "type": "string",
                        "format": ""
                    }
                }
            },
            "PersistenceFailedException": {
                "description": "",
                "type": "object",
                "properties": {
                    "invalids": {
                        "type": "array",
                        "format": ""
                    },
                    "errors": {
                        "type": "array",
                        "format": "",
                        "example": "\/url\/path"
                    },
                    "message": {
                        "type": "string",
                        "format": "",
                        "example": "Validation Error Message"
                    }
                }
            },
            "Pest": {
                "description": "Pest Entity",
                "type": "object",
                "properties": {
                    "id": {
                        "type": "integer",
                        "format": "",
                        "readOnly": true
                    },
                    "name": {
                        "type": "string",
                        "format": "",
                        "minLength": 1,
                        "maxLength": 60
                    }
                }
            },
            "Pests": {
                "description": "",
                "type": "array",
                "items": {
                    "$ref": "#\/components\/schemas\/Pest"
                }
            },
            "Product": {
                "description": "Product Entity",
                "type": "object",
                "properties": {
                    "id": {
                        "type": "integer",
                        "format": "",
                        "readOnly": true
                    },
                    "name": {
                        "type": "string",
                        "format": "",
                        "minLength": 1,
                        "maxLength": 60
                    },
                    "vendor_name": {
                        "type": "string",
                        "format": "",
                        "minLength": 1,
                        "maxLength": 60
                    },
                    "type": {
                        "type": "string",
                        "format": "",
                        "maxLength": 20
                    }
                }
            },
            "Products": {
                "description": "",
                "type": "array",
                "items": {
                    "$ref": "#\/components\/schemas\/Product"
                }
            },
            "UserAuthenticated": {
                "description": "",
                "type": "object",
                "properties": {
                    "token_type": {
                        "type": "string",
                        "format": ""
                    },
                    "token": {
                        "type": "string",
                        "format": "",
                        "description": "JWT TOKEN"
                    },
                    "token_expire": {
                        "type": "integer",
                        "format": "",
                        "description": "Future timestamp for token expiration."
                    },
                    "data": {
                        "type": "object",
                        "format": "",
                        "description": "Some users data."
                    }
                }
            },
            "UserLogin": {
                "description": "",
                "type": "object",
                "properties": {
                    "username": {
                        "type": "string",
                        "format": "",
                        "example": "email@email.com"
                    },
                    "password": {
                        "type": "string",
                        "format": "",
                        "example": "password123test"
                    }
                }
            }
        }
    }
}